Package demo: Hidden Markov Model • ino
…
library("fHMM")
library("dplyr")
dax <- download_data(symbol = "^GDAXI", from = "1990-01-01", to = "2020-01-01") %>%
  as_tibble() %>%
  reframe(
    date = as.Date(Date, format = "%Y-%m-%d"),
    logreturn = c(NA, diff(log(Close), lag = 1))
  ) %>%
  filter(!is.na(logreturn)) %>%
  print()
#> # A tibble: 7,475 × 2
#>    date       logreturn
#>    <date>         <dbl>
#>  1 1990-01-03  0.0429  
#>  2 1990-01-04 -0.0197  
#>  3 1990-01-05 -0.00989 
#>  4 1990-01-08  0.0156  
#>  5 1990-01-09  0.0130  
#>  6 1990-01-10 -0.0121  
#>  7 1990-01-11  0.000201
#>  8 1990-01-12  0.00947 
#>  9 1990-01-15 -0.0111  
#> 10 1990-01-16 -0.0188  
#> # ℹ 7,465 more rows
…
The frequency table indicates that 168 out of 364 runs converged to
the smallest (negative) log-likelihood value, which appears to be the
global optimum (note that these are the negative log-likelihood values).
However, in 196 runs we apparently got stuck in local optima.

Using $results, we now can investigate the optimum
values ("value"), the corresponding parameter vectors
("parameter"), and the optimization times
("seconds") of all runs (here, only the first are
shown):

Nop_hmm$results |> select(value, parameter, seconds)
#> # A tibble: 564 × 3
#>      value parameter seconds
#>      <dbl> <list>      <dbl>
#>  1 -22446. <dbl [6]>   0.682
#>  2 -22446. <dbl [6]>   0.570
#>  3 -22446. <dbl [6]>   0.439
#>  4 -22446. <dbl [6]>   0.583
#>  5 -22446. <dbl [6]>   0.470
#>  6 -21372. <dbl [6]>   0.298
#>  7 -22446. <dbl [6]>   0.411
#>  8 -22446. <dbl [6]>   0.462
#>  9 -21372. <dbl [6]>   0.327
#> 10 -21372. <dbl [6]>   0.344
#> # ℹ 554 more rows
…
