Introduction to ino • ino
…
#>   value     n
#>   <dbl> <int>
#> 1  -276    83
#> 2  -421    13
#> 3    NA     4
#> 
#> $`stats::nlm`
#> # A tibble: 2 × 2
#>   value     n
#>   <dbl> <int>
#> 1  -421    92
#> 2  -276    53
#> 
#> $`stats::optim`
#> # A tibble: 24 × 2
#>    value     n
#>    <dbl> <int>
#>  1  -421    65
#>  2  -276     8
#>  3  -278     3
#>  4  -277     3
#>  5  -293     2
#>  6  -453     1
#>  7  -417     1
#>  8  -416     1
#>  9  -415     1
#> 10  -403     1
#> # ℹ 14 more rows
…
